Verilog/ECE 253 Lab 6/lab6p1/v2/simulation/qsim/onboard_fsm_modified.msim.vcd
$comment
	File created using the following command:
		vcd file onboard_fsm_modified.msim.vcd -direction
$end
$date
	Tue Oct 29 19:40:32 2019
$end
$version
	ModelSim Version 10.5b
$end
$timescale
	1ps
$end

$scope module onboard_fsm_modified_vlg_vec_tst $end
$var reg 1 ! KEY [0:0] $end
$var reg 2 " SW [1:0] $end
$var wire 1 # LEDR [9] $end
$var wire 1 $ LEDR [8] $end
$var wire 1 % LEDR [7] $end
$var wire 1 & LEDR [6] $end
$var wire 1 ' LEDR [5] $end
$var wire 1 ( LEDR [4] $end
$var wire 1 ) LEDR [3] $end
$var wire 1 * LEDR [2] $end
$var wire 1 + LEDR [1] $end
$var wire 1 , LEDR [0] $end

$scope module i1 $end
$var wire 1 - gnd $end
$var wire 1 . vcc $end
$var wire 1 / unknown $end
$var tri1 1 0 devclrn $end
$var tri1 1 1 devpor $end
$var tri1 1 2 devoe $end
$var wire 1 3 ~QUARTUS_CREATED_GND~I_combout $end
$var wire 1 4 KEY[0]~input_o $end
$var wire 1 5 KEY[0]~inputCLKENA0_outclk $end
$var wire 1 6 SW[0]~input_o $end
$var wire 1 7 F0|Q~q $end
$var wire 1 8 SW[1]~input_o $end
$var wire 1 9 F1|Q~1_combout $end
$var wire 1 : F5|Q~1_combout $end
$var wire 1 ; F2|Q~0_combout $end
$var wire 1 < F2|Q~q $end
$var wire 1 = F3|Q~0_combout $end
$var wire 1 > F3|Q~q $end
$var wire 1 ? F4|Q~0_combout $end
$var wire 1 @ F4|Q~q $end
$var wire 1 A F5|Q~0_combout $end
$var wire 1 B F5|Q~q $end
$var wire 1 C F6|Q~0_combout $end
$var wire 1 D F6|Q~q $end
$var wire 1 E F7|Q~0_combout $end
$var wire 1 F F7|Q~q $end
$var wire 1 G F9|Q~0_combout $end
$var wire 1 H F9|Q~q $end
$var wire 1 I F1|Q~0_combout $end
$var wire 1 J F1|Q~q $end
$var wire 1 K z~0_combout $end
$upscope $end
$upscope $end
$enddefinitions $end
#0
$dumpvars
b0 !
b1 "
0,
0+
0*
0)
0(
0'
0&
0%
0$
0#
0-
1.
x/
10
11
12
03
04
05
16
07
08
19
0:
0;
0<
0=
0>
0?
0@
0A
0B
0C
0D
0E
0F
0G
0H
1I
0J
0K
$end
#20000
b1 !
14
15
1J
17
1,
1+
0I
1;
#40000
b0 !
04
05
#50000
b11 "
18
1:
09
0;
1A
#60000
b1 !
14
15
0J
1B
1'
0+
1C
0A
#70000
b1 "
08
0:
19
0C
1I
#80000
b0 !
04
05
#100000
b1 !
14
15
1J
0B
0'
1+
0I
1;
#120000
b0 !
04
05
#140000
b1 !
14
15
0J
1<
1*
0+
1=
0;
#160000
b0 !
04
05
#180000
b1 !
14
15
1>
0<
0*
1)
0=
1?
#200000
b0 !
04
05
#220000
b1 !
14
15
1@
0>
0)
1(
1K
1#
#240000
b11 "
b0 !
18
04
05
1:
09
0?
1A
#260000
b1 !
14
15
1B
0@
0(
1'
0K
0A
1C
0#
#280000
b0 !
04
05
#300000
b1 !
14
15
1D
0B
0'
1&
0C
1E
#320000
b0 !
04
05
#340000
b1 !
14
15
1F
0D
0&
1%
0E
1G
#360000
b0 !
04
05
#380000
b1 !
14
15
1H
0F
0%
1$
1K
1#
#400000
b0 !
04
05
#420000
b1 !
14
15
#440000
b10 "
b0 !
06
04
05
0:
0G
#460000
b1 !
14
15
0H
07
0,
0$
0K
0#
#470000
b11 "
16
1:
1A
#480000
b0 !
04
05
#500000
b1 !
14
15
1B
17
1,
1'
0A
1C
#520000
b0 !
04
05
#540000
b1 !
14
15
1D
0B
0'
1&
0C
1E
#560000
b0 !
04
05
#580000
b1 !
14
15
1F
0D
0&
1%
0E
1G
#600000
b0 !
04
05
#620000
b1 !
14
15
1H
0F
0%
1$
1K
1#
#640000
b0 !
04
05
#650000
b1 "
08
0:
19
0G
1I
#660000
b1 !
14
15
1J
0H
0$
1+
0K
0I
1;
0#
#680000
b0 !
04
05
#700000
b1 !
14
15
0J
1<
1*
0+
1=
0;
#720000
b0 !
04
05
#740000
b1 !
14
15
1>
0<
0*
1)
0=
1?
#760000
b0 !
04
05
#780000
b1 !
14
15
1@
0>
0)
1(
1K
1#
#800000
b0 !
04
05
#820000
b1 !
14
15
#840000
b0 !
04
05
#860000
b1 !
14
15
#880000
b0 !
04
05
#900000
b1 !
14
15
#920000
b0 !
04
05
#940000
b1 !
14
15
#960000
b0 !
04
05
#980000
b1 !
14
15
