Verilog/ECE 253 Lab 6/lab6p2/simulation/qsim/nicer_fsm.msim.vcd
$comment
	File created using the following command:
		vcd file nicer_fsm.msim.vcd -direction
$end
$date
	Tue Oct 29 20:07:29 2019
$end
$version
	ModelSim Version 10.5b
$end
$timescale
	1ps
$end

$scope module nicer_fsm_vlg_vec_tst $end
$var reg 1 ! KEY [0:0] $end
$var reg 2 " SW [1:0] $end
$var wire 1 # LEDR [9] $end
$var wire 1 $ LEDR [8] $end
$var wire 1 % LEDR [7] $end
$var wire 1 & LEDR [6] $end
$var wire 1 ' LEDR [5] $end
$var wire 1 ( LEDR [4] $end
$var wire 1 ) LEDR [3] $end
$var wire 1 * LEDR [2] $end
$var wire 1 + LEDR [1] $end
$var wire 1 , LEDR [0] $end

$scope module i1 $end
$var wire 1 - gnd $end
$var wire 1 . vcc $end
$var wire 1 / unknown $end
$var tri1 1 0 devclrn $end
$var tri1 1 1 devpor $end
$var tri1 1 2 devoe $end
$var wire 1 3 ~QUARTUS_CREATED_GND~I_combout $end
$var wire 1 4 KEY[0]~input_o $end
$var wire 1 5 KEY[0]~inputCLKENA0_outclk $end
$var wire 1 6 SW[0]~input_o $end
$var wire 1 7 SW[1]~input_o $end
$var wire 1 8 now~20_combout $end
$var wire 1 9 now.E~q $end
$var wire 1 : now~14_combout $end
$var wire 1 ; now.B~q $end
$var wire 1 < now~18_combout $end
$var wire 1 = now.C~q $end
$var wire 1 > now~15_combout $end
$var wire 1 ? now.D~q $end
$var wire 1 @ now~19_combout $end
$var wire 1 A now.G~q $end
$var wire 1 B now~17_combout $end
$var wire 1 C now.H~q $end
$var wire 1 D now~21_combout $end
$var wire 1 E now.I~q $end
$var wire 1 F now~16_combout $end
$var wire 1 G now.F~q $end
$var wire 1 H WideOr6~combout $end
$var wire 1 I WideOr5~combout $end
$var wire 1 J WideOr4~combout $end
$var wire 1 K z~0_combout $end
$upscope $end
$upscope $end
$enddefinitions $end
#0
$dumpvars
b0 !
b1 "
0,
0+
0*
0)
0(
0'
0&
0%
0$
0#
0-
1.
x/
10
11
12
03
04
05
16
07
08
09
1:
0;
0<
0=
0>
0?
0@
0A
0B
0C
0D
0E
0F
0G
0H
0I
0J
0K
$end
#20000
b1 !
14
15
1;
1H
1<
0:
1,
#40000
b0 !
04
05
#50000
b11 "
17
1F
0<
#60000
b1 !
14
15
1G
0;
1J
0F
1@
1*
#70000
b1 "
07
0@
1:
#80000
b0 !
04
05
#100000
b1 !
14
15
0G
1;
1<
0:
0J
0*
#120000
b0 !
04
05
#140000
b1 !
14
15
1=
0;
0H
0<
1I
1>
1+
0,
#160000
b0 !
04
05
#180000
b1 !
14
15
1?
0=
0>
1H
18
1,
#200000
b0 !
04
05
#220000
b1 !
14
15
0?
19
1K
1J
0I
0H
0,
0+
1*
1#
#240000
b11 "
b0 !
17
04
05
1F
08
#260000
b1 !
14
15
1G
09
0K
1H
0F
1@
1,
0#
#280000
b0 !
04
05
#300000
b1 !
14
15
0G
1A
1I
1B
0H
0@
0,
1+
#320000
b0 !
04
05
#340000
b1 !
14
15
1C
0A
0B
1H
1D
1,
#360000
b0 !
04
05
#380000
b1 !
14
15
0C
1E
1)
0J
0I
0H
1K
1#
0,
0+
0*
#400000
b0 !
04
05
#420000
b1 !
14
15
#440000
b10 "
b0 !
06
04
05
0D
#460000
b1 !
14
15
0E
0)
0K
0#
#470000
b11 "
16
1F
#480000
b0 !
04
05
#500000
b1 !
14
15
1G
1J
1H
0F
1@
1,
1*
#520000
b0 !
04
05
#540000
b1 !
14
15
0G
1A
1I
1B
0H
0@
0,
1+
#560000
b0 !
04
05
#580000
b1 !
14
15
1C
0A
0B
1H
1D
1,
#600000
b0 !
04
05
#620000
b1 !
14
15
0C
1E
1)
0J
0I
0H
1K
1#
0,
0+
0*
#640000
b0 !
04
05
#650000
b1 "
07
0D
1:
#660000
b1 !
14
15
1;
0E
0)
1H
1<
0:
0K
0#
1,
#680000
b0 !
04
05
#700000
b1 !
14
15
1=
0;
0H
0<
1I
1>
1+
0,
#720000
b0 !
04
05
#740000
b1 !
14
15
1?
0=
0>
1H
18
1,
#760000
b0 !
04
05
#780000
b1 !
14
15
0?
19
1K
1J
0I
0H
0,
0+
1*
1#
#800000
b0 !
04
05
#820000
b1 !
14
15
#840000
b0 !
04
05
#860000
b1 !
14
15
#880000
b0 !
04
05
#900000
b1 !
14
15
#920000
b0 !
04
05
#940000
b1 !
14
15
#960000
b0 !
04
05
#980000
b1 !
14
15
