Verilog/ECE 253 Lab 5/Part 1/simulation/qsim/part1.msim.vcd
$comment
	File created using the following command:
		vcd file part1.msim.vcd -direction
$end
$date
	Tue Oct 15 19:31:33 2019
$end
$version
	ModelSim Version 10.5b
$end
$timescale
	1ps
$end

$scope module part1_vlg_vec_tst $end
$var reg 1 ! D $end
$var reg 1 " clk $end
$var wire 1 # Q [2] $end
$var wire 1 $ Q [1] $end
$var wire 1 % Q [0] $end

$scope module i1 $end
$var wire 1 & gnd $end
$var wire 1 ' vcc $end
$var wire 1 ( unknown $end
$var tri1 1 ) devclrn $end
$var tri1 1 * devpor $end
$var tri1 1 + devoe $end
$var wire 1 , ~QUARTUS_CREATED_GND~I_combout $end
$var wire 1 - clk~input_o $end
$var wire 1 . clk~inputCLKENA0_outclk $end
$var wire 1 / D~input_o $end
$var wire 1 0 U3|Q~feeder_combout $end
$var wire 1 1 U3|Q~q $end
$var wire 1 2 U2|Q~feeder_combout $end
$var wire 1 3 U2|Q~q $end
$var wire 1 4 U1|Q~combout $end
$upscope $end
$upscope $end
$enddefinitions $end
#0
$dumpvars
0!
0"
0%
0$
x#
0&
1'
x(
1)
1*
1+
0,
0-
0.
0/
00
01
02
03
x4
$end
#80000
1!
1/
12
10
#140000
1"
1-
1.
14
1#
13
1$
#180000
0!
0/
04
02
00
0#
#220000
1!
1/
14
12
10
1#
#260000
0!
0/
04
02
00
0#
#360000
0"
0-
0.
#380000
1!
1/
12
10
#440000
0!
0/
02
00
#460000
1!
1/
12
10
#500000
0!
0/
02
00
#580000
1"
1-
1.
03
0$
#620000
1!
1/
14
12
10
1#
#680000
0!
0/
04
02
00
0#
#740000
1!
1/
14
12
10
1#
#820000
0"
0-
0.
11
1%
#900000
0!
0/
02
00
